{"artists": {"href": "https://api.spotify.com/v1/search?query=IU&type=artist&market=US&offset=0&limit=1", "items": [{"external_urls": {"spotify": "https://open.spotify.com/artist/3HqSLMAZ3g3d5poNaI7GOU"}, "followers": {"href": null, "total": 6411944}, "genres": ["k-pop"], "href": "https://api.spotify.com/v1/artists/3HqSLMAZ3g3d5poNaI7GOU", "id": "3HqSLMAZ3g3d5poNaI7GOU", "images": [{"height": 640, "url": "https://i.scdn.co/image/ab6761610000e5eb006ff3c0136a71bfb9928d34", "width": 640}, {"height": 320, "url": "https://i.scdn.co/image/ab67616100005174006ff3c0136a71bfb9928d34", "width": 320}, {"height": 160, "url": "https://i.scdn.co/image/ab6761610000f178006ff3c0136a71bfb9928d34", "width": 160}], "name": "IU", "popularity": 77, "type": "artist", "uri": "spotify:artist:3HqSLMAZ3g3d5poNaI7GOU"}], "limit": 1, "next": "https://api.spotify.com/v1/search?query=IU&type=artist&market=US&offset=1&limit=1", "offset": 0, "previous": null, "total": 815}}