{"artists": {"href": "https://api.spotify.com/v1/search?query=one+direction&type=artist&market=US&offset=0&limit=1", "items": [{"external_urls": {"spotify": "https://open.spotify.com/artist/4AK6F7OLvEQ5QYCBNiQWHq"}, "followers": {"href": null, "total": 24329460}, "genres": ["boy band", "pop", "post-teen pop", "talent show"], "href": "https://api.spotify.com/v1/artists/4AK6F7OLvEQ5QYCBNiQWHq", "id": "4AK6F7OLvEQ5QYCBNiQWHq", "images": [{"height": 1000, "url": "https://i.scdn.co/image/5bb443424a1ad71603c43d67f5af1a04da6bb3c8", "width": 1000}, {"height": 640, "url": "https://i.scdn.co/image/289c7f686f5b78ceeb224453cf9a15697a678a79", "width": 640}, {"height": 200, "url": "https://i.scdn.co/image/45741ba38b51130bb96e00c0e24d17ba311a9293", "width": 200}, {"height": 64, "url": "https://i.scdn.co/image/6c89c662ad0ab75bc2af9a3ae2b16f811daced50", "width": 64}], "name": "One Direction", "popularity": 88, "type": "artist", "uri": "spotify:artist:4AK6F7OLvEQ5QYCBNiQWHq"}], "limit": 1, "next": "https://api.spotify.com/v1/search?query=one+direction&type=artist&market=US&offset=1&limit=1", "offset": 0, "previous": null, "total": 7}}